{
	"pattrstorage" : 	{
		"name" : "pfsh.storage",
		"slots" : 		{
			"1" : 			{
				"id" : 1,
				"data" : 				{
					"autostart" : [ 0 ],
					"hidetext" : [ 1 ],
					"WPM" : [ 18 ],
					"autoclear" : [ 0 ],
					"current_line" : [ 1 ],
					"file" : [ "Macintosh HD:/Users/convocation3/Documents/Max 7/Projects/pfshMorse_new/data/Convocation bud 120116.txt" ],
					"freq_1[1]" : [ 750 ],
					"log_enable" : [ 0 ],
					"loop_count" : [ 0 ],
					"master_gain" : [ 0.0 ],
					"plow" : [ 0 ],
					"timer_enable" : [ 0 ],
					"time_unit" : [ 40 ],
					"initial_open" : [ 2 ]
				}

			}
,
			"2" : 			{
				"id" : 2,
				"data" : 				{
					"autostart" : [  ],
					"hidetext" : [  ],
					"WPM" : [  ],
					"autoclear" : [  ],
					"current_line" : [ 8 ],
					"file" : [ "disk:/Users/mattyo/Documents/Max 7/Projects/pfshMorse_new/data/rig veda 150626.txt" ],
					"freq_1[1]" : [  ],
					"log_enable" : [  ],
					"loop_count" : [  ],
					"master_gain" : [  ],
					"plow" : [  ],
					"timer_enable" : [  ],
					"time_unit" : [ 3 ],
					"initial_open" : [  ]
				}

			}
,
			"3" : 			{
				"id" : 3,
				"data" : 				{
					"autostart" : [  ],
					"hidetext" : [  ],
					"WPM" : [  ],
					"autoclear" : [  ],
					"current_line" : [ 2 ],
					"file" : [ "disk:/Users/mattyo/Documents/Max 7/Projects/pfshMorse_new/data/Bible text part 1a.txt" ],
					"freq_1[1]" : [  ],
					"log_enable" : [  ],
					"loop_count" : [  ],
					"master_gain" : [  ],
					"plow" : [  ],
					"timer_enable" : [  ],
					"time_unit" : [ 12 ],
					"initial_open" : [  ]
				}

			}
,
			"4" : 			{
				"id" : 4,
				"data" : 				{
					"autostart" : [  ],
					"hidetext" : [  ],
					"WPM" : [  ],
					"autoclear" : [  ],
					"current_line" : [ 34 ],
					"file" : [ "disk:/Users/mattyo/Documents/Max 7/Projects/pfshMorse_new/data/Bible text part 1a.txt" ],
					"freq_1[1]" : [  ],
					"log_enable" : [  ],
					"loop_count" : [  ],
					"master_gain" : [  ],
					"plow" : [  ],
					"timer_enable" : [  ],
					"time_unit" : [ 3 ],
					"initial_open" : [  ]
				}

			}
,
			"5" : 			{
				"id" : 5,
				"data" : 				{
					"autostart" : [  ],
					"hidetext" : [  ],
					"WPM" : [  ],
					"autoclear" : [  ],
					"current_line" : [ 1 ],
					"file" : [ "disk:/Users/mattyo/Documents/Max 7/Projects/pfshMorse_new/data/line_positions.txt" ],
					"freq_1[1]" : [  ],
					"log_enable" : [  ],
					"loop_count" : [  ],
					"master_gain" : [  ],
					"plow" : [  ],
					"timer_enable" : [  ],
					"time_unit" : [ 12 ],
					"initial_open" : [  ]
				}

			}

		}

	}

}
